25

42
41
32
-1
2
5
-1
-3
1

72
17
-2
23
3
-1
-2
14
-2

43
21
21
-2
11
21
-2
8

26
72
-1
16
1
-2
1
1
8

78
12
-2
3
-1
29
4
-1
-2
3

47
54
19
-2
-1
6
-1
4

10
5
-2
40
-1
49
-1
4
12
-1

47
51
-1
2
17
-1
5
4

10
46
14
26
10
3
-5
-4
-4
6

91
9
10
9
-3
-2
-1
3
7
-3

87
17
-2
2
17
-1
2
-2
-2
6

11
59
-1
13
16
-1
12
13
-4

10
40
57
12
-4
5

25
57
34
-2
-1
2
9
-1
-2
6

81
4
2
3
4
5
5

64
28
16
11
-4
6
-3

80
17
15
7
-2
1
-1

79
30
13
-1
-2
3

24
35
2
-1
30
15
-4
1
7
6

36
43
-2
35
-2
1
-2
10
4

23
12
17
-3
41
18
1
2
3

4
80
-1
2
10
-2
-1
3
14
13

72
16
4
-3
4
20
6
-5

66
29
20
-1
-1
8
4

27
27
6
-2
37
17
5
-2
